Data manipulation with dplyr
…
## # A tibble: 1  4
##    year    meeting members_total members_black
##   <int>      <chr>         <int>         <int>
## 1  1817 Charleston          6049          5699

We can change how that code works by using the group_by() function. Now we get the one row for each unique year in the dataset.

methodists %>% 
  select(year, meeting, members_total, members_black) %>% 
  group_by(year) %>% 
  top_n(1, members_black)

## Source: local data frame [49 x 4]
## Groups: year [49]
## 
##     year meeting members_total members_black
##    <int>   <chr>         <int>         <int>
## 1   1786 Antigua          1000          1000
## 2   1787    Kent          1211           604
## 3   1788 Calvert          1347           842
## 4   1789 Calvert          1852           909
## 5   1790 Calvert          1984          1170
## 6   1791 Calvert          2089          1329
## 7   1792 Calvert          1900          1200
## 8   1793   Surry          1769           955
## 9   1794 Calvert          1784          1102
## 10  1795 Calvert          1526           924
## # ... with 39 more rows

We get the same results more concisely and reliably, though the steps of split-apply-combine are perhaps somewhat less easy to see.

For each year, which was the biggest circuit?

methodists %>%
  select(year, meeting, members_total) %>%
  group_by(year) %>%
  top_n(1, members_total)

## Source: local data frame [49 x 3]
## Groups: year [49]
## 
##     year meeting members_total
##    <int>   <chr>         <int>
## 1   1786    Kent          1013
## 2   1787  Talbot          1601
## 3   1788  Sussex          1611
## 4   1789 Calvert          1852
## 5   1790 Calvert          1984
## 6   1791 Calvert          2089
## 7   1792 Calvert          1900
## 8   1793   Surry          1769
## 9   1794  Sussex          2354
## 10  1795 Calvert          1526
## # ... with 39 more rows

For each year, which church had the biggest percentage of black members without being entirely black?

methodists2 %>%
  filter(percentage_black != 1.00) %>%
  select(year, meeting, percentage_black) %>%
  group_by(year) %>%
  top_n(1, percentage_black)

## Source: local data frame [50 x 3]
## Groups: year [49]
## 
##     year         meeting percentage_black
##    <int>           <chr>            <dbl>
## 1   1786         Calvert        0.5171849
## 2   1787      Charleston        0.6091954
## 3   1788         Calvert        0.6250928
## 4   1789     Mecklenburg        0.8759494
## 5   1790       Annapolis        0.6026059
## 6   1791      Charleston        0.6432432
## 7   1792      Georgetown        0.6711409
## 8   1793 Prince George's        0.7758621
## 9   1793      Georgetown        0.7758621
## 10  1794      Charleston        0.7857143
## # ... with 40 more rows
…
methodists %>% filter(year == 1825)  %>%
  select(year, district, members_total) %>%
  group_by(district) %>%
  top_n(1, members_total)

## Source: local data frame [74 x 3]
## Groups: district [74]
## 
##     year    district members_total
##    <int>       <chr>         <int>
## 1   1825        Ohio           701
## 2   1825    Portland           785
## 3   1825   Lancaster          7775
## 4   1825   Muskingum          1090
## 5   1825      Scioto          1022
## 6   1825     Lebanon          1419
## 7   1825       Miami           906
## 8   1825     Kenhawa           648
## 9   1825     Augusta           930
## 10  1825 Green River           734
## # ... with 64 more rows

For each year, what was the biggest church in the Baltimore conference?

methodists %>%
  select(year, conference, meeting, members_total) %>%
  filter(conference == "Baltimore") %>%
  group_by(year) %>%
  top_n(1, members_total)

## Source: local data frame [33 x 4]
## Groups: year [33]
## 
##     year conference meeting members_total
##    <int>      <chr>   <chr>         <int>
## 1   1802  Baltimore Calvert          1612
## 2   1803  Baltimore Calvert          2052
## 3   1804  Baltimore Calvert          2457
## 4   1805  Baltimore Calvert          2531
## 5   1806  Baltimore Calvert          2421
## 6   1807  Baltimore Calvert          2544
## 7   1808  Baltimore Calvert          2273
## 8   1809  Baltimore Calvert          2182
## 9   1810  Baltimore Calvert          2303
## 10  1811  Baltimore Calvert          2198
## # ... with 23 more rows
…
How many meetings were there in each conference in each year since 1802?

methodists %>%
  filter(year >= 1802) %>%
  select(year, conference) %>%
  group_by(conference, year) %>%
    summarize(total_meetings = n())

## Source: local data frame [389 x 3]
## Groups: conference [?]
## 
##    conference  year total_meetings
##         <chr> <int>          <int>
## 1     Alabama  1833             22
## 2     Alabama  1834             28
## 3   Baltimore  1802             30
## 4   Baltimore  1803             30
## 5   Baltimore  1804             37
## 6   Baltimore  1805             39
## 7   Baltimore  1806             39
## 8   Baltimore  1807             46
## 9   Baltimore  1808             42
## 10  Baltimore  1809             41
## # ... with 379 more rows
…
